[
  {
    "name": "Кошка",
    "weight": "light",
    "size": "small",
    "type": "predator"
  },
  {
    "name": "коза",
    "weight": "middle",
    "size": "middle",
    "type": "herbivore"
  },
  {
    "name": "медведь",
    "weight": "heavy",
    "size": "large",
    "type" : "omnivorous"
  },
  {
    "name": "Мантикора",
    "weight": "middle",
    "size": "middle",
    "comment": "мифическое"
  },
  {}
]